{
    "file_format_version" : "1.1.1",
    "layer" : {
        "name": "VK_LAYER_vkpipeline_db",
        "type": "GLOBAL",
        "library_path": "libVkLayer_vkpipeline_db.so",
        "api_version": "1.1.102",
        "implementation_version": "1",
        "description": "vkpipeline-db capture layer",
        "functions": {
            "vkNegotiateLoaderLayerInterfaceVersion":
                "vkpipeline_db_NegotiateLoaderLayerInterfaceVersion"
        },
        "enable_environment": {
            "ENABLE_VKPIPELINE_DB": "1"
        },
        "disable_environment": {
            "DISABLE_VKPIPELINE_DB": "1"
        }
    }
}
